<?xml version="1.0" encoding="UTF-8" standalone="no"?>
<!DOCTYPE svg PUBLIC "-//W3C//DTD SVG 1.1//EN"
 "http://www.w3.org/Graphics/SVG/1.1/DTD/svg11.dtd">
<!-- Generated by graphviz version 2.47.3 (20210619.1520)
 -->
<!-- Title: dependencies Pages: 1 -->
<svg width="1029pt" height="174pt"
 viewBox="0.00 0.00 1029.00 173.80" xmlns="http://www.w3.org/2000/svg" xmlns:xlink="http://www.w3.org/1999/xlink">
<g id="graph0" class="graph" transform="scale(1 1) rotate(0) translate(4 169.8)">
<title>dependencies</title>
<polygon fill="white" stroke="transparent" points="-4,4 -4,-169.8 1025,-169.8 1025,4 -4,4"/>
<text text-anchor="middle" x="510.5" y="-8.2" font-family="sans-serif" font-size="14.00">dependencies</text>
<g id="clust1" class="cluster">
<title>cluster_EcomboxModule</title>
<polygon fill="none" stroke="black" stroke-dasharray="1,5" points="8,-32.8 8,-157.8 1013,-157.8 1013,-32.8 8,-32.8"/>
</g>
<g id="clust2" class="cluster">
<title>cluster_EcomboxModule_declarations</title>
<polygon fill="none" stroke="black" points="728,-40.8 728,-92.8 1005,-92.8 1005,-40.8 728,-40.8"/>
</g>
<g id="clust5" class="cluster">
<title>cluster_EcomboxModule_imports</title>
<polygon fill="none" stroke="black" points="16,-40.8 16,-92.8 720,-92.8 720,-40.8 16,-40.8"/>
</g>
<!-- EcomboxComponent -->
<g id="node1" class="node">
<title>EcomboxComponent</title>
<polygon fill="#ffffb3" stroke="black" points="997.49,-84.8 862.51,-84.8 862.51,-48.8 997.49,-48.8 997.49,-84.8"/>
<text text-anchor="middle" x="930" y="-62.6" font-family="Times,serif" font-size="14.00">EcomboxComponent</text>
</g>
<!-- EcomboxModule -->
<g id="node3" class="node">
<title>EcomboxModule</title>
<polygon fill="#8dd3c7" stroke="black" points="551.71,-149.8 548.71,-153.8 527.71,-153.8 524.71,-149.8 438.29,-149.8 438.29,-113.8 551.71,-113.8 551.71,-149.8"/>
<text text-anchor="middle" x="495" y="-127.6" font-family="Times,serif" font-size="14.00">EcomboxModule</text>
</g>
<!-- EcomboxComponent&#45;&gt;EcomboxModule -->
<g id="edge1" class="edge">
<title>EcomboxComponent&#45;&gt;EcomboxModule</title>
<path fill="none" stroke="black" d="M930,-85.09C930,-107.01 930,-140.8 930,-140.8 930,-140.8 561.87,-140.8 561.87,-140.8"/>
<polygon fill="black" stroke="black" points="561.87,-137.3 551.87,-140.8 561.87,-144.3 561.87,-137.3"/>
</g>
<!-- HelpComponent -->
<g id="node2" class="node">
<title>HelpComponent</title>
<polygon fill="#ffffb3" stroke="black" points="844.05,-84.8 735.95,-84.8 735.95,-48.8 844.05,-48.8 844.05,-84.8"/>
<text text-anchor="middle" x="790" y="-62.6" font-family="Times,serif" font-size="14.00">HelpComponent</text>
</g>
<!-- HelpComponent&#45;&gt;EcomboxModule -->
<g id="edge2" class="edge">
<title>HelpComponent&#45;&gt;EcomboxModule</title>
<path fill="none" stroke="black" d="M790,-84.91C790,-104.14 790,-131.8 790,-131.8 790,-131.8 561.88,-131.8 561.88,-131.8"/>
<polygon fill="black" stroke="black" points="561.88,-128.3 551.88,-131.8 561.88,-135.3 561.88,-128.3"/>
</g>
<!-- DashboardModule -->
<g id="node4" class="node">
<title>DashboardModule</title>
<polygon fill="#8dd3c7" stroke="black" points="712.19,-84.8 709.19,-88.8 688.19,-88.8 685.19,-84.8 591.81,-84.8 591.81,-48.8 712.19,-48.8 712.19,-84.8"/>
<text text-anchor="middle" x="652" y="-62.6" font-family="Times,serif" font-size="14.00">DashboardModule</text>
</g>
<!-- DashboardModule&#45;&gt;EcomboxModule -->
<g id="edge3" class="edge">
<title>DashboardModule&#45;&gt;EcomboxModule</title>
<path fill="none" stroke="black" d="M652,-84.83C652,-101.2 652,-122.8 652,-122.8 652,-122.8 561.68,-122.8 561.68,-122.8"/>
<polygon fill="black" stroke="black" points="561.68,-119.3 551.68,-122.8 561.68,-126.3 561.68,-119.3"/>
</g>
<!-- EcomboxRoutingModule -->
<g id="node5" class="node">
<title>EcomboxRoutingModule</title>
<polygon fill="#8dd3c7" stroke="black" points="574.33,-84.8 571.33,-88.8 550.33,-88.8 547.33,-84.8 415.67,-84.8 415.67,-48.8 574.33,-48.8 574.33,-84.8"/>
<text text-anchor="middle" x="495" y="-62.6" font-family="Times,serif" font-size="14.00">EcomboxRoutingModule</text>
</g>
<!-- EcomboxRoutingModule&#45;&gt;EcomboxModule -->
<g id="edge4" class="edge">
<title>EcomboxRoutingModule&#45;&gt;EcomboxModule</title>
<path fill="none" stroke="black" d="M495,-84.91C495,-84.91 495,-103.79 495,-103.79"/>
<polygon fill="black" stroke="black" points="491.5,-103.79 495,-113.79 498.5,-103.79 491.5,-103.79"/>
</g>
<!-- ImagesModule -->
<g id="node6" class="node">
<title>ImagesModule</title>
<polygon fill="#8dd3c7" stroke="black" points="397.97,-84.8 394.97,-88.8 373.97,-88.8 370.97,-84.8 298.03,-84.8 298.03,-48.8 397.97,-48.8 397.97,-84.8"/>
<text text-anchor="middle" x="348" y="-62.6" font-family="Times,serif" font-size="14.00">ImagesModule</text>
</g>
<!-- ImagesModule&#45;&gt;EcomboxModule -->
<g id="edge5" class="edge">
<title>ImagesModule&#45;&gt;EcomboxModule</title>
<path fill="none" stroke="black" d="M348,-84.83C348,-101.2 348,-122.8 348,-122.8 348,-122.8 428.17,-122.8 428.17,-122.8"/>
<polygon fill="black" stroke="black" points="428.17,-126.3 438.17,-122.8 428.17,-119.3 428.17,-126.3"/>
</g>
<!-- MiscellaneousModule -->
<g id="node7" class="node">
<title>MiscellaneousModule</title>
<polygon fill="#8dd3c7" stroke="black" points="280.41,-84.8 277.41,-88.8 256.41,-88.8 253.41,-84.8 139.59,-84.8 139.59,-48.8 280.41,-48.8 280.41,-84.8"/>
<text text-anchor="middle" x="210" y="-62.6" font-family="Times,serif" font-size="14.00">MiscellaneousModule</text>
</g>
<!-- MiscellaneousModule&#45;&gt;EcomboxModule -->
<g id="edge6" class="edge">
<title>MiscellaneousModule&#45;&gt;EcomboxModule</title>
<path fill="none" stroke="black" d="M210,-84.91C210,-104.14 210,-131.8 210,-131.8 210,-131.8 428.35,-131.8 428.35,-131.8"/>
<polygon fill="black" stroke="black" points="428.35,-135.3 438.35,-131.8 428.35,-128.3 428.35,-135.3"/>
</g>
<!-- SharedModule -->
<g id="node8" class="node">
<title>SharedModule</title>
<polygon fill="#8dd3c7" stroke="black" points="122.42,-84.8 119.42,-88.8 98.42,-88.8 95.42,-84.8 23.58,-84.8 23.58,-48.8 122.42,-48.8 122.42,-84.8"/>
<text text-anchor="middle" x="73" y="-62.6" font-family="Times,serif" font-size="14.00">SharedModule</text>
</g>
<!-- SharedModule&#45;&gt;EcomboxModule -->
<g id="edge7" class="edge">
<title>SharedModule&#45;&gt;EcomboxModule</title>
<path fill="none" stroke="black" d="M73,-85.09C73,-107.01 73,-140.8 73,-140.8 73,-140.8 428.09,-140.8 428.09,-140.8"/>
<polygon fill="black" stroke="black" points="428.09,-144.3 438.09,-140.8 428.09,-137.3 428.09,-144.3"/>
</g>
</g>
</svg>
